260508 318322
80388 856549
177587 237920
78364 617815
359562 69465
271624 10067
814840 588512
846519 768887
605238 716178
929960 127105
940562 921896
343257 522224
154334 324865
676529 545002
86492 547061
621320 310689
666049 466856
977261 134567
877088 176566
346108 274397
351549 987406
534741 350191
217263 445639
128424 347039
79835 555723
809000 48602
344399 824493
530010 178530
267543 693141
583909 26960
236663 387490
110160 141588
477004 383436
116764 837570
439390 207193
517051 681283
277278 602126
854936 376034
915631 655285
731830 353832
816655 200988
98969 301636
731821 118432
468682 597245
820383 474193
771379 910940
864715 131419
297042 865048
793740 924648
197554 938386
657334 832125
340896 61694
656969 377167
370188 345376
704628 513985
448567 359513
12862 704744
526386 518652
265979 830137
410701 928421
545812 670843
283922 186979
402522 554143
170134 537453
666221 354523
453251 447193
848826 424822
457101 210522
432523 554769
404544 545234
729790 383265
929596 541491
387078 229089
839463 725639
656168 776871
165683 677336
625499 799056
409376 266937
607145 869176
484547 226176
156611 546790
254171 830199
949219 171723
795661 890785
723216 624819
643826 876943
867417 600717
399212 423302
569272 347313
705007 561615
661297 282844
367752 963116
455290 814455
397398 660087
944681 700584
928456 405615
678359 650910
744096 981402
14979 632405
182358 948607
987763 744178
562664 720121
478789 227721
869401 658436
507339 71682
512907 162835
155866 380381
325865 909894
875960 761494
5089 313141
756374 386391
163874 990996
167953 938922
652292 446335
626699 900975
477287 233467
255002 208200
849498 126815
96799 957563
470893 722410
680864 615670
38058 843375
164173 942922
138198 258948
129696 411226
338056 974602
35248 715509
117401 243650
78051 768369
592928 773101
904102 936741
869949 156807
170646 328738
187730 333836
111940 728917
290525 84951
664998 792029
932457 569331
396920 104998
819229 166487
330086 717541
491326 604260
914580 673025
51043 787655
338995 118842
279506 117156
725930 739516
72015 39256
181665 958012
896838 555836
975616 634640
152841 390016
539813 565486
752889 195752
329843 265741
313063 723528
347249 468442
750029 167064
303798 238980
228171 149421
678872 702123
908567 224088
800322 555428
711900 18923
845897 654357
254655 454483
29931 142780
649834 109269
474266 339422
121483 612009
995273 952986
776255 134975
871621 554679
376619 429672
666688 338714
718692 923515
925115 567019
212781 131902
680200 493251
697827 669700
218246 330162
50650 121019
945243 55048
615740 420197
921565 583196
224112 276335
989761 650538
201714 119306
1450 114293
736241 984911
550778 245353
544926 678545
603824 107690
457054 482769
979597 284830
931059 805178
429488 96129
415167 328003
954473 966488
741395 770135
729316 740692
326505 781756
712539 882305
500932 56705
204629 79617
410125 11731
331738 992125
809046 511463
659041 319702
245970 555183
33124 844710
634582 35866
617661 646774
253295 825945
234335 847751
838988 153531
79732 811083
922405 809979
491949 762150
278994 395606
116356 510010
799360 645789
404336 286800
880076 696552
473295 557206
973689 484892
480080 43348
611303 436685
915770 805936
399273 246374
88439 262059
303490 549496
860522 196811
453978 754098
993200 183632
779716 830592
161035 76812
507235 819574
208332 843567
865288 772016
420638 298923
768982 396802
770171 921100
883506 650302
640449 417844
262320 819848
206430 525896
124000 833662
528982 15518
557158 206266
601915 111881
858657 218512
546526 801304
786527 737849
209112 441973
175852 648223
688953 968045
969465 764932
211362 934617
330304 983130
138279 290796
677649 580581
63165 91800
793453 222046
504957 334491
885362 363128
53876 637147
596778 408705
446062 820405
890625 500678
152687 648855
954904 913847
77404 967880
647342 773058
89271 856154
262819 226804
487413 727735
718490 117023
956613 200316
982305 210717
33759 814400
545640 619845
613430 13703
857550 869052
250929 561540
534267 935171
208160 705663
643205 215667
694689 447615
545931 124147
857087 609313
373101 130006
210736 409594
32257 93369
393961 98905
916690 21908
266917 562378
819247 512505
687492 150832
240750 932899
